<?xml version="1.0" encoding="utf-8"?>
<!-- Generator: Adobe Illustrator 16.0.0, SVG Export Plug-In . SVG Version: 6.00 Build 0)  -->
<!DOCTYPE svg PUBLIC "-//W3C//DTD SVG 1.1//EN" "http://www.w3.org/Graphics/SVG/1.1/DTD/svg11.dtd">
<svg version="1.1" id="レイヤー_1" xmlns="http://www.w3.org/2000/svg" xmlns:xlink="http://www.w3.org/1999/xlink" x="0px"
	 y="0px" width="247.65px" height="32.63px" viewBox="0 0 247.65 32.63" enable-background="new 0 0 247.65 32.63"
	 xml:space="preserve">
<path fill-rule="evenodd" clip-rule="evenodd" d="M12.94,31.69c0.31,0,0.78,0.05,0.78-0.39c0-0.34-0.47-0.38-1.14-0.43
	c-1.26-0.05-3.09-0.14-3.66-2.32c-0.24-1.02-0.2-4.37-0.16-12.75c3.97-0.15,8.41-0.26,9.09,4.07c0.21,1.4,0.21,1.45,0.58,1.45
	c0.35,0,0.52-0.43,0.52-0.73v-1.84c0-3.36,0.08-4.46,0.08-6.51c0-0.34,0.15-1.96,0.15-2.1c0-0.54-0.36-0.69-0.53-0.69
	c-0.39,0-0.43,0.44-0.43,0.64c-0.42,4.89-5.07,4.89-6.69,4.89c-0.73,0-2.3-0.05-2.77-0.1c0-2.1,0.11-7.04,0.11-9.39
	c0-1.52,0.05-2.54,0.36-2.94c0.52-0.63,5.64-0.78,6.48-0.78c3.37,0,6.97,0.74,9.73,4.06c0.25,0.34,1.36,2.3,1.8,2.3
	c0.24,0,0.44-0.15,0.44-0.54l-0.97-5.83c-0.05-0.29-0.15-0.68-0.44-0.82c-0.24,0.01-2.86,0.01-3.5,0.01
	c-8.89,0-17.58,0.08-20.73,0.26C1.4,1.25,0,1.29,0,1.66c0,0.31,0.53,0.4,0.77,0.4c3.84,0.25,4.37,0.3,4.37,14.37
	c0,2.52,0,11.29-0.73,12.99c-0.53,1.21-1.16,1.45-2.67,1.45c-0.38,0-0.97,0-0.97,0.43c0,0.39,0.49,0.39,0.73,0.39
	c0.39,0,1.65-0.08,2.87-0.13c1.19,0.2,2.33,0.15,2.71,0.15h2.1c0.78-0.19,1.72-0.15,3.13-0.02H12.94z"/>
<path fill-rule="evenodd" clip-rule="evenodd" d="M6.881,31.429L6.47,31.432c-0.775,0-1.447-0.05-2.053-0.151
	c-0.598,0.018-1.146,0.046-1.622,0.07c-0.596,0.03-1.08,0.055-1.295,0.055c-0.3,0-0.446-0.035-0.446-0.106
	c0-0.146,0.481-0.146,0.687-0.146c1.535,0,2.323-0.234,2.93-1.62c0.507-1.182,0.754-5.467,0.754-13.104
	c0-13.886-0.459-14.381-4.635-14.653c-0.17,0-0.344-0.041-0.44-0.085c0.319-0.121,1.195-0.17,1.507-0.188l0.202-0.012
	C4.895,1.331,12.638,1.234,22.77,1.234c1.933,0,3.082-0.003,3.423-0.009c0.106,0.086,0.186,0.282,0.237,0.583l0.97,5.828
	c-0.004,0.21-0.102,0.21-0.16,0.21c-0.245-0.093-1.027-1.333-1.284-1.741c-0.128-0.204-0.23-0.364-0.288-0.443
	c-3.112-3.744-7.173-4.176-9.958-4.176c-0.06,0-6.013,0.052-6.699,0.883C8.651,2.834,8.586,3.785,8.586,5.49
	c0,1.207-0.029,3.097-0.057,4.935c-0.026,1.741-0.053,3.434-0.053,4.455c0,0.145,0.109,0.267,0.253,0.282
	c0.506,0.054,2.103,0.102,2.8,0.102c1.615,0,6.53,0,6.972-5.149c0.001-0.157,0.021-0.38,0.148-0.38c0.002,0,0.246,0.011,0.246,0.406
	c0,0.058-0.023,0.327-0.049,0.653c-0.044,0.542-0.101,1.236-0.101,1.447c0,0.896-0.015,1.611-0.032,2.414
	c-0.022,1.031-0.048,2.207-0.048,4.096v1.84c0,0.18-0.099,0.446-0.236,0.446c-0.056,0-0.09-0.001-0.103-0.005
	c-0.026-0.059-0.092-0.505-0.185-1.122c-0.616-3.927-4.02-4.445-7.269-4.445c-0.707,0-1.423,0.025-2.124,0.052
	c-0.152,0.006-0.272,0.13-0.273,0.282l-0.01,2.058c-0.035,6.926-0.049,9.793,0.178,10.758c0.629,2.407,2.692,2.489,3.924,2.539
	c0.291,0.022,0.794,0.059,0.872,0.148c-0.106,0.106-0.258,0.106-0.315,0.106l-0.815-0.002c-0.82-0.077-1.381-0.11-1.848-0.11
	c-0.534,0-0.962,0.044-1.349,0.138L6.881,31.429z"/>
<path fill-rule="evenodd" clip-rule="evenodd" d="M31.06,0.95c-0.49,0-0.98,0-0.98,0.41c0,0.25,0.3,0.33,0.54,0.33
	c1.5,0.18,2.18,0.28,2.86,1.02c0.73,0.75,1.35,1.44,1.35,11.91c0,0.99-0.08,5.64-0.08,6.67c0,3.96,0.32,5.78,1.34,7.51
	c2.19,3.56,8.24,3.83,10.12,3.83c6.76,0,10.63-2.49,11.97-5.46c1.47-3.11,1.52-10.47,1.58-14.23c0-9.63,0.68-10.77,3.98-11.25
	c0.49-0.08,0.53-0.2,0.53-0.33c0-0.37-0.38-0.41-0.63-0.41h-9.73c-0.65,0-1.19,0-1.19,0.41c0,0.37,0.54,0.41,0.94,0.41
	c4.17,0.06,4.52,4.16,4.52,8.9c0,5.53-0.15,10.62-0.65,13.59c-0.89,5.28-5.06,6.62-9.38,6.62c-2.68,0-7.1-0.64-8.74-4.6
	c-0.94-2.22-1.04-5.48-1.04-12.5c0-7.56,0.14-11.46,3.42-11.95c1.14-0.18,1.59-0.22,1.59-0.55c0-0.33-0.4-0.33-1.04-0.33H31.06z"/>
<path fill-rule="evenodd" clip-rule="evenodd" d="M46.21,32.346c-1.784,0-7.769-0.266-9.878-3.695
	c-0.982-1.666-1.298-3.456-1.298-7.361c0-0.52,0.02-1.961,0.041-3.388c0.02-1.402,0.04-2.791,0.04-3.282
	c0-10.638-0.631-11.287-1.431-12.108c-0.764-0.832-1.568-0.928-3.029-1.104c-0.182-0.002-0.278-0.042-0.296-0.062
	c0.006-0.104,0.335-0.113,0.703-0.113h11.28c0.308,0,0.692,0,0.771,0.06c-0.086,0.057-0.576,0.133-1.094,0.214L41.746,1.55
	c-3.496,0.522-3.659,4.552-3.659,12.229c0,7.023,0.101,10.339,1.062,12.61c1.72,4.153,6.378,4.773,9.001,4.773
	c5.643,0,8.893-2.307,9.659-6.856c0.44-2.614,0.654-7.075,0.654-13.638c0-4.803-0.367-9.12-4.8-9.183
	c-0.593,0-0.659-0.113-0.659-0.114c-0.001-0.139,0.566-0.139,0.905-0.139h9.73c0.31,0,0.342,0.07,0.346,0.112
	c-0.021,0-0.103,0.033-0.292,0.064c-3.625,0.527-4.218,2.144-4.218,11.53l-0.007,0.488c-0.057,3.738-0.163,10.697-1.545,13.621
	C56.427,30.368,52.048,32.346,46.21,32.346z"/>
<path fill-rule="evenodd" clip-rule="evenodd" d="M95.63,31.69c0.54,0,0.73,0,0.73-0.33c0-0.28-0.34-0.28-0.92-0.41
	c-4.08-1.09-5.15-5.92-5.59-8.04c-0.87-4.39-2.04-9.96-9.9-9.81c3.1-4.1,6.26-7.13,7.23-8.05c3.74-3.54,4.96-3.8,7.53-4.3
	c0.53-0.08,0.68-0.2,0.68-0.45c0-0.12-0.05-0.24-0.24-0.28c-0.25,0.03-4.76,0-5.35,0c-0.82,0-4.71,0.07-5.63,0.07
	c-0.39,0-0.73,0.03-0.73,0.28c0,0.32,0.49,0.36,0.93,0.43c0.97,0.14,2.13,0.75,2.13,1.61c0,1.23-2.23,3.67-2.72,4.28
	c-6.31,7.29-6.31,7.29-9.03,9.22c-0.05-1.78-0.24-10.59-0.24-12.58c0-0.41,0-2.34,1.26-2.49c2.23-0.22,2.48-0.22,2.48-0.5
	c0-0.25-0.25-0.32-0.64-0.32c-0.72,0-2.91,0.03-4.94,0.07c-2.07-0.07-4.26-0.07-5.08-0.07c-0.3,0-1.07,0-1.07,0.45
	c0,0.24,0.39,0.33,0.58,0.37c1.6,0.2,2.48,0.3,2.96,1.57c0.78,2.09,0.83,14.57,0.83,15.29c-0.49,2.99-0.9,8.69-0.94,9.65
	c-0.14,1.98-0.29,3.23-2.91,3.65c-0.58,0.09-0.68,0.26-0.68,0.43c0,0.36,0.68,0.31,1.02,0.31c0.64,0.21,3.22-0.03,5.29-0.03
	c1.03,0,2.18,0.05,3.25,0.1c1.06-0.16,1.99-0.12,2.37-0.12c0.25,0,0.59-0.08,0.59-0.39c0-0.38-0.54-0.43-0.83-0.43
	c-3.63-0.43-3.63-2.17-3.63-6.32c0-3.18,0.04-6.46,0.28-7.14c0.2-0.39,3.01-3.49,5.59-3.49c1.06,0,1.99,0.62,2.62,1.69
	c1.94,2.19,2.72,7.2,2.81,7.83c0.98,6.13,1.12,6.52,2.48,8.37c1.36-0.05,2.58-0.1,3.26-0.1c0.87,0,1.79,0.05,2.57,0.15
	C94.81,31.61,95.44,31.69,95.63,31.69z"/>
<path fill-rule="evenodd" clip-rule="evenodd" d="M94.004,31.571c-0.756-0.093-1.657-0.145-2.544-0.145
	c-0.574,0-1.532,0.036-2.635,0.077l-0.485,0.018c-1.236-1.689-1.376-2.097-2.34-8.126c-0.082-0.572-0.861-5.697-2.877-7.973
	c-0.663-1.136-1.68-1.786-2.833-1.786c-2.751,0-5.616,3.205-5.842,3.645c-0.222,0.622-0.311,2.785-0.311,7.269
	c0,4.089,0,6.142,3.88,6.602c0.371,0.002,0.58,0.078,0.58,0.148c0,0.081-0.207,0.106-0.307,0.106l-0.548-0.004
	c-0.686,0-1.295,0.042-1.864,0.128c-1.036-0.054-2.187-0.104-3.208-0.104c-0.771,0-1.612,0.033-2.399,0.064
	c-0.683,0.027-1.323,0.052-1.838,0.052c-0.495,0-0.819-0.024-0.965-0.072l-0.205-0.013l-0.142,0.001
	c-0.349,0-0.457-0.042-0.488-0.061c0.001,0,0.002,0,0.003,0c0.03,0,0.121-0.068,0.447-0.118c2.766-0.443,2.999-1.775,3.149-3.91
	c0.042-1.007,0.458-6.701,0.937-9.624c0.004-0.177-0.02-13.226-0.844-15.435c-0.537-1.42-1.577-1.551-3.151-1.748
	c-0.281-0.057-0.358-0.108-0.378-0.128c0.017-0.001,0.093-0.131,0.794-0.131c0.822,0,3.005,0,5.07,0.069
	c2.043-0.04,4.23-0.069,4.95-0.069c0.297,0,0.362,0.046,0.369,0.051c-0.004,0-0.011-0.001-0.019-0.001
	c-0.134,0-0.744,0.06-1.719,0.155l-0.499,0.049c-0.569,0.068-1.516,0.518-1.516,2.772c0,1.974,0.189,10.776,0.24,12.588
	c0.003,0.104,0.063,0.199,0.157,0.246c0.04,0.02,0.083,0.03,0.126,0.03c0.058,0,0.115-0.018,0.164-0.053
	c2.748-1.95,2.748-1.95,9.081-9.266c0.073-0.09,0.171-0.207,0.292-0.349c1.297-1.533,2.498-3.093,2.498-4.117
	c0-1.005-1.223-1.725-2.373-1.891L84.285,0.5c-0.154-0.023-0.422-0.063-0.53-0.118c0.01,0.001,0.022,0.001,0.037,0.001
	c0.066,0,0.183-0.01,0.378-0.01c0.474,0,1.734-0.019,2.958-0.037c1.153-0.017,2.273-0.033,2.671-0.033c0,0,3.026,0.013,3.983,0.013
	c1.273,0,1.359-0.01,1.401-0.016C95.1,0.346,95.049,0.412,94.667,0.47c-2.568,0.5-3.852,0.749-7.682,4.374
	c-2.657,2.521-5.167,5.316-7.261,8.085c-0.065,0.086-0.076,0.203-0.026,0.3c0.048,0.095,0.146,0.155,0.252,0.155
	c0.002,0,0.308-0.003,0.308-0.003c7.414,0,8.467,5.314,9.314,9.585c0.403,1.945,1.474,7.104,5.794,8.259l0.327,0.068
	c0.161,0.031,0.361,0.071,0.406,0.106c-0.048,0.008-0.271,0.008-0.469,0.008l-0.101-0.003c-0.08-0.004-0.183-0.009-0.306-0.009
	C94.795,31.394,94.396,31.452,94.004,31.571z"/>
<path fill-rule="evenodd" clip-rule="evenodd" d="M98.67,0.95c-0.49,0-0.97,0-0.97,0.41c0,0.25,0.29,0.33,0.53,0.33
	c1.51,0.18,2.19,0.28,2.87,1.02c0.73,0.75,1.34,1.44,1.34,11.91c0,0.99-0.08,5.64-0.08,6.67c0,3.96,0.32,5.78,1.34,7.51
	c2.2,3.56,8.24,3.83,10.12,3.83c6.76,0,10.63-2.49,11.97-5.46c1.47-3.11,1.53-10.47,1.58-14.23c0-9.63,0.68-10.77,3.98-11.25
	c0.49-0.08,0.54-0.2,0.54-0.33c0-0.37-0.39-0.41-0.64-0.41h-9.73c-0.64,0-1.19,0-1.19,0.41c0,0.37,0.55,0.41,0.94,0.41
	c4.18,0.06,4.52,4.16,4.52,8.9c0,5.53-0.15,10.62-0.64,13.59c-0.9,5.28-5.07,6.62-9.39,6.62c-2.68,0-7.1-0.64-8.74-4.6
	c-0.94-2.22-1.04-5.48-1.04-12.5c0-7.56,0.15-11.46,3.42-11.95c1.15-0.18,1.59-0.22,1.59-0.55c0-0.33-0.39-0.33-1.04-0.33H98.67z"/>
<path fill-rule="evenodd" clip-rule="evenodd" d="M113.82,32.346c-1.782,0-7.76-0.266-9.879-3.695
	c-0.981-1.665-1.297-3.455-1.297-7.361c0-0.52,0.02-1.961,0.04-3.388c0.02-1.402,0.04-2.791,0.04-3.282
	c0-10.649-0.627-11.292-1.42-12.108c-0.765-0.833-1.573-0.929-3.04-1.104c-0.176-0.002-0.268-0.039-0.286-0.059
	c0.006-0.096,0.247-0.116,0.692-0.116h11.28c0.309,0,0.692,0,0.771,0.059c-0.087,0.06-0.583,0.136-1.108,0.218l-0.257,0.04
	c-3.497,0.524-3.66,4.554-3.66,12.23c0,7.023,0.101,10.339,1.062,12.61c1.72,4.153,6.378,4.773,9.001,4.773
	c5.641,0,8.894-2.307,9.669-6.855c0.434-2.627,0.644-7.088,0.644-13.638c0-4.803-0.367-9.12-4.8-9.183
	c-0.589,0-0.659-0.115-0.659-0.116c-0.001-0.137,0.566-0.137,0.905-0.137h9.73c0.313,0,0.351,0.07,0.356,0.111h0
	c-0.022,0-0.106,0.034-0.301,0.065c-3.625,0.527-4.218,2.144-4.218,11.53l-0.003,0.277c-0.049,3.793-0.141,10.853-1.549,13.832
	C124.037,30.368,119.659,32.346,113.82,32.346z"/>
<path fill-rule="evenodd" clip-rule="evenodd" d="M144.89,31.74c1.21,0,1.79-0.09,1.79-0.39c0-0.3-0.43-0.39-0.63-0.39
	c-1.45-0.19-3.11-0.53-3.49-2.85c-0.25-1.53-0.44-10.28-0.44-13.09c0-2.97,0-8.84,0.39-11.36c0.29-1.98,1.7-2.47,3.49-2.72
	c0.15-0.05,0.68-0.1,0.68-0.45c0-0.49-0.72-0.49-1.21-0.49c-1.02,0-5.59,0.1-6.58,0.1C138.4,0.1,135.64,0,135,0
	c-0.14,0-0.48,0-0.48,0.45c0,0.34,0.24,0.49,0.63,0.54c1.84,0.29,2.48,1.04,2.77,2.12c0.58,2.18,0.58,13.98,0.58,17.04
	c0,1.83-0.05,7.41-0.29,8.85c-0.29,1.77-1.8,1.87-2.67,1.87c-0.2,0-0.68,0.05-0.68,0.48c0,0.26,0.24,0.39,0.53,0.39
	c0.2,0.05,1.9-0.05,2.67-0.05C140.78,31.69,143.19,31.74,144.89,31.74z"/>
<path fill-rule="evenodd" clip-rule="evenodd" d="M135.669,31.471c-0.103,0-0.179-0.001-0.218-0.007
	c-0.063-0.007-0.307-0.008-0.307-0.113c0-0.171,0.248-0.196,0.396-0.196c0.644,0,2.605,0,2.95-2.108
	c0.241-1.444,0.294-6.912,0.294-8.896c0-9.885-0.198-15.643-0.589-17.113c-0.365-1.358-1.262-2.053-3-2.327
	c-0.391-0.051-0.391-0.172-0.391-0.26c0-0.155,0.027-0.167,0.196-0.167c0.34,0,1.281,0.028,2.159,0.055
	c0.775,0.023,1.501,0.045,1.731,0.045c0.492,0,1.868-0.025,3.253-0.05c1.402-0.025,2.814-0.05,3.327-0.05
	c0.301,0,0.926,0,0.926,0.207c0,0.02-0.034,0.072-0.354,0.146c-0.054,0.012-0.1,0.023-0.132,0.034
	c-1.579,0.216-3.344,0.651-3.681,2.948c-0.394,2.539-0.394,8.304-0.394,11.401c0,2.938,0.197,11.625,0.444,13.136
	c0.435,2.653,2.5,2.924,3.733,3.085c0.193,0.002,0.361,0.068,0.384,0.109c-0.043,0.008-0.322,0.106-1.507,0.106
	c-0.75,0-1.638-0.01-2.629-0.021c-1.257-0.014-2.68-0.03-4.201-0.03c-0.318,0-0.793,0.017-1.258,0.034
	C136.367,31.456,135.941,31.471,135.669,31.471z"/>
<path fill-rule="evenodd" clip-rule="evenodd" d="M163.74,7.35c-3.69-4.28-3.93-4.37-5.44-6.35c-0.82-0.05-4.46-0.05-6.74-0.05
	c-0.44,0-1.07,0-1.07,0.46c0,0.27,0.63,0.36,0.82,0.36c1.02,0.15,1.85,0.68,2.38,1.21c2.72,2.74,2.87,4.9,2.92,6.39
	c0.09,4.04,0.29,10.49,0.29,14.53c0,4.18-0.1,6.97-4.86,6.97c-0.34,0-0.78,0.09-0.78,0.46c0,0.32,0.59,0.36,0.83,0.36
	c0.68,0.17,3.4-0.03,5.67,0.02c2.53,0,4.82,0.2,5.55,0.24c0.29-0.21,0.87-0.21,0.87-0.62c0-0.18-0.1-0.37-0.29-0.41
	c-0.34-0.1-2.04-0.48-2.43-0.58c-2.63-0.91-2.87-3.12-3.02-4.37c-0.34-3.03-0.73-6.5-0.73-17.17c0-0.53,0-0.92,0.3-0.92
	c0.09,0,0.43,0.2,0.73,0.72c0.58,1.01,2.82,3.37,4.03,4.67c0.93,0.96,2.97,3.46,4.47,5.24c1.51,1.88,9.05,10.54,10.7,12.52
	c0.2,0.2,0.53,0.68,0.76,0.68c0.3,0,0.33-0.58,0.33-0.72c0.16-6.1,0.16-12.24,0.16-18.34c0-8.46,0-10.39,4.91-10.92
	c0.29,0,0.63-0.14,0.63-0.41c0-0.41-0.53-0.41-0.78-0.41l-4.22,0.03c-1.12,0.29-6.55-0.03-6.99,0.01c-0.29,0.05-0.49,0.19-0.49,0.46
	c0,0.36,0.34,0.36,0.93,0.36c0.34,0,2.38,0.2,3.79,1.74c1.36,1.44,1.41,2.93,1.41,8.7c0,3.46-0.05,8.37-0.24,11.74
	c-0.15-0.2-0.83-0.96-1.27-1.4L163.74,7.35z"/>
<path fill-rule="evenodd" clip-rule="evenodd" d="M162.733,31.628c-1.023-0.071-2.927-0.202-4.973-0.202
	c-0.261-0.005-0.534-0.008-0.809-0.008c-0.726,0-1.466,0.017-2.148,0.032c-0.579,0.013-1.115,0.026-1.563,0.026
	c-0.207,0-0.835,0-1.081-0.062c-0.384-0.009-0.587-0.073-0.626-0.116c0.011-0.109,0.335-0.146,0.507-0.146
	c5.144,0,5.144-3.201,5.144-7.254c0-2.988-0.108-7.226-0.203-10.964c-0.033-1.298-0.064-2.517-0.087-3.572
	c-0.046-1.38-0.124-3.684-3.002-6.583c-0.684-0.684-1.609-1.154-2.54-1.291c-0.216-0.003-0.534-0.076-0.598-0.143
	c0.021-0.113,0.532-0.113,0.807-0.113c2.11,0,5.578,0,6.595,0.042c0.867,1.133,1.334,1.66,2.323,2.775
	c0.671,0.757,1.59,1.793,3.047,3.484l13.13,15.2c0.454,0.456,1.12,1.202,1.257,1.385c0.055,0.073,0.139,0.114,0.227,0.114
	c0.027,0,0.055-0.004,0.082-0.012c0.114-0.035,0.194-0.137,0.201-0.255c0.217-3.854,0.241-9.506,0.241-11.756
	c0-5.802-0.059-7.382-1.488-8.895c-1.629-1.779-3.973-1.829-3.996-1.829c-0.26,0-0.584,0-0.652-0.051
	c0.005-0.069,0.005-0.162,0.26-0.206l0.085,0c0.23,0,0.694,0.016,1.277,0.036c1.002,0.034,2.354,0.08,3.5,0.08
	c1.105,0,1.809-0.043,2.151-0.132l4.151-0.021c0.332,0,0.494,0.041,0.494,0.126c0,0.038-0.146,0.126-0.346,0.126
	c-5.194,0.56-5.194,2.814-5.194,11.204c0,6.016,0,12.236-0.159,18.333c0,0.21-0.05,0.417-0.093,0.46
	c-0.017-0.043-0.221-0.282-0.32-0.397c-0.071-0.083-0.138-0.16-0.194-0.216c-0.671-0.807-2.382-2.793-4.254-4.965
	c-2.6-3.019-5.548-6.439-6.425-7.532l-1.236-1.477c-1.255-1.505-2.553-3.062-3.251-3.783l-0.348-0.373
	c-1.246-1.334-3.128-3.351-3.64-4.241c-0.327-0.566-0.738-0.863-0.976-0.863c-0.584,0-0.584,0.64-0.584,1.204
	c0,10.677,0.389,14.14,0.731,17.194c0.157,1.309,0.439,3.655,3.21,4.614c0.18,0.047,0.552,0.133,0.961,0.228
	c0.599,0.139,1.28,0.297,1.481,0.356c0.061,0.014,0.086,0.081,0.086,0.138c0,0.062-0.1,0.108-0.324,0.189
	c-0.113,0.041-0.229,0.082-0.336,0.142L162.733,31.628z"/>
<path fill-rule="evenodd" clip-rule="evenodd" d="M198.97,31.69c0.31,0,0.78,0.05,0.78-0.39c0-0.34-0.47-0.38-1.15-0.43
	c-1.25-0.05-3.08-0.14-3.65-2.32c-0.24-1.02-0.2-4.37-0.16-12.75c3.97-0.15,8.41-0.26,9.09,4.07c0.21,1.4,0.21,1.45,0.58,1.45
	c0.34,0,0.52-0.43,0.52-0.73v-1.84c0-3.36,0.08-4.46,0.08-6.51c0-0.34,0.15-1.96,0.15-2.1c0-0.54-0.36-0.69-0.53-0.69
	c-0.39,0-0.43,0.44-0.43,0.64c-0.42,4.89-5.07,4.89-6.69,4.89c-0.73,0-2.3-0.05-2.77-0.1c0-2.1,0.1-7.04,0.1-9.39
	c0-1.52,0.06-2.54,0.37-2.94c0.52-0.63,5.64-0.78,6.48-0.78c3.37,0,6.96,0.74,9.73,4.06c0.25,0.34,1.36,2.3,1.8,2.3
	c0.24,0,0.44-0.15,0.44-0.54l-0.97-5.83c-0.05-0.29-0.15-0.68-0.44-0.82c-0.24,0.01-2.87,0.01-3.5,0.01
	c-8.89,0-17.59,0.08-20.74,0.26c-0.63,0.04-2.04,0.08-2.04,0.45c0,0.31,0.54,0.4,0.78,0.4c3.84,0.25,4.37,0.3,4.37,14.37
	c0,2.52,0,11.29-0.73,12.99c-0.53,1.21-1.16,1.45-2.67,1.45c-0.39,0-0.97,0-0.97,0.43c0,0.39,0.49,0.39,0.73,0.39
	c0.39,0,1.65-0.08,2.86-0.13c1.2,0.2,2.34,0.15,2.72,0.15h2.1c0.78-0.19,1.72-0.15,3.13-0.02H198.97z"/>
<path fill-rule="evenodd" clip-rule="evenodd" d="M192.911,31.429l-0.411,0.003c-0.776,0-1.451-0.05-2.063-0.152
	c-0.589,0.019-1.13,0.046-1.603,0.07c-0.599,0.031-1.087,0.056-1.304,0.056c-0.3,0-0.446-0.035-0.446-0.106
	c0-0.146,0.48-0.146,0.686-0.146c1.535,0,2.323-0.234,2.93-1.62c0.508-1.182,0.754-5.467,0.754-13.104
	c0-13.886-0.459-14.381-4.635-14.653c-0.172,0-0.349-0.041-0.448-0.085c0.321-0.12,1.19-0.169,1.501-0.187l0.206-0.012
	c2.837-0.162,10.584-0.259,20.722-0.259c1.933,0,3.082-0.003,3.423-0.009c0.105,0.086,0.185,0.282,0.237,0.583l0.969,5.828
	c-0.004,0.21-0.102,0.21-0.16,0.21c-0.245-0.093-1.026-1.333-1.283-1.741c-0.128-0.204-0.23-0.365-0.288-0.443
	c-3.124-3.744-7.179-4.176-9.958-4.176c-0.06,0-6.013,0.052-6.699,0.883c-0.366,0.473-0.435,1.461-0.435,3.121
	c0,1.207-0.026,3.098-0.052,4.935c-0.024,1.74-0.048,3.433-0.048,4.455c0,0.145,0.109,0.267,0.253,0.282
	c0.506,0.054,2.104,0.102,2.8,0.102c1.615,0,6.53,0,6.972-5.149c0.001-0.157,0.021-0.38,0.148-0.38c0.002,0,0.246,0.011,0.246,0.406
	c0,0.058-0.023,0.327-0.049,0.653c-0.044,0.542-0.101,1.236-0.101,1.447c0,0.896-0.015,1.611-0.032,2.414
	c-0.022,1.031-0.048,2.207-0.048,4.096v1.84c0,0.195-0.114,0.446-0.236,0.446c-0.056,0-0.09-0.001-0.103-0.005
	c-0.025-0.059-0.092-0.504-0.185-1.122c-0.616-3.927-4.02-4.445-7.27-4.445c-0.707,0-1.423,0.025-2.124,0.052
	c-0.152,0.006-0.272,0.13-0.273,0.282l-0.01,2.058c-0.035,6.926-0.049,9.793,0.178,10.758c0.629,2.406,2.686,2.489,3.915,2.539
	c0.294,0.022,0.804,0.059,0.882,0.148c-0.106,0.106-0.258,0.106-0.315,0.106l-0.815-0.002c-0.571-0.054-1.261-0.11-1.849-0.11
	c-0.533,0-0.962,0.044-1.349,0.138L192.911,31.429z"/>
<path fill-rule="evenodd" clip-rule="evenodd" d="M221.5,15.33c0-5.12,2.88-14.49,10.3-14.49c7.13,0,10.54,8.41,10.54,15.15
	c0,5.83-2.68,15.82-10.44,15.82c-2.88,0-5.61-1.72-7.03-3.65C222.09,24.41,221.5,17.92,221.5,15.33z M216.19,16.14
	c0,11,7.51,16.49,15.08,16.49c9.85,0,16.38-8.88,16.38-16.89c0-7.56-5.65-15.72-15.26-15.72C221.8,0.02,216.19,9.81,216.19,16.14z"
	/>
<path fill-rule="evenodd" clip-rule="evenodd" d="M231.27,32.346c-7.126,0-14.796-5.071-14.796-16.206
	c0-6.473,5.668-15.836,15.917-15.836c9.375,0,14.977,7.849,14.977,15.437C247.367,23.76,240.899,32.346,231.27,32.346z M231.8,0.556
	c-7.919,0-10.584,10.146-10.584,14.774c0,3.111,0.722,9.351,3.426,12.999c1.378,1.873,4.158,3.765,7.258,3.765
	c7.812,0,10.724-9.877,10.724-16.104C242.624,5.966,237.047,0.556,231.8,0.556z"/>
</svg>
