Webサイトより以下の内容でお問い合わせがありました。


==============◇お問い合わせ内容控え◇==============
[お名前]
%%SEI_NAMAE%% %%MEI_NAMAE%%

[フリガナ]
%%SEI_KANA%% %%MEI_KANA%%

[学校名・会社名]
%%COMPANY%%

[メールアドレス]
%%MAIL%%

[ご住所]
%%ZIP1%%-%%ZIP2%%
%%PREF%%%%ADDRESS1%%
%%ADDRESS2%%

[お電話番号]
%%TEL%%

[お問い合わせの種類]
%%TYPE%%

[お問い合わせ内容]
%%BODY%%
================================================
